%YAML 1.1
%TAG !u! tag:unity3d.com,2011:
--- !u!1045 &1
EditorBuildSettings:
  m_ObjectHideFlags: 0
  serializedVersion: 2
  m_Scenes:
  - enabled: 1
    path: Assets/Scenes/MainMenu.unity
    guid: 52a0842d128ed15409a4c02c4851838a
  - enabled: 1
    path: Assets/Scenes/GameScene.unity
    guid: cb32681925cce874e8724dced0cc92e7
  m_configObjects: {}
